PANDAS
…
##  3 AZD6244          0.320         0.244 
##  4 Crizotinib       0.409         0.106 
##  5 Erlotinib        0.0812        0.0800
##  6 lapatinib        0.427         0.289 
##  7 Nilotinib        0.611         0.122 
##  8 Nutlin-3         0.143         0.306 
##  9 paclitaxel       0.211         0.350 
## 10 PD-0325901       0.625         0.580 
## 11 PD-0332991       0.240         0.141 
## 12 PHA-665752       0.118         0.0554
## 13 PLX4720          0.456         0.358 
## 14 Sorafenib        0.277         0.329 
## 15 TAE684           0.287         0.268

## # A tibble: 30 x 3
##    drug       measure      correlation
##    <chr>      <chr>              <dbl>
##  1 17-AAG     Pearson_ic50      0.543 
##  2 AZD0530    Pearson_ic50      0.455 
##  3 AZD6244    Pearson_ic50      0.320 
##  4 Crizotinib Pearson_ic50      0.409 
##  5 Erlotinib  Pearson_ic50      0.0812
##  6 lapatinib  Pearson_ic50      0.427 
##  7 Nilotinib  Pearson_ic50      0.611 
##  8 Nutlin-3   Pearson_ic50      0.143 
##  9 paclitaxel Pearson_ic50      0.211 
## 10 PD-0325901 Pearson_ic50      0.625 
## # ... with 20 more rows
…
##  3 AZD6244        NaN          0.290  
##  4 Crizotinib     NaN          0.167  
##  5 Erlotinib      NaN          0.452  
##  6 lapatinib      NaN          0.429  
##  7 Nilotinib      NaN          0.147  
##  8 Nutlin-3       NaN          0.269  
##  9 paclitaxel       0.115      0.384  
## 10 PD-0325901     NaN          0.607  
## 11 PD-0332991     NaN          0.332  
## 12 PHA-665752     NaN         -0.00138
## 13 PLX4720        NaN          0.377  
## 14 Sorafenib      NaN          0.289  
## 15 TAE684         NaN          0.419

## # A tibble: 30 x 3
##    drug       measure     correlation
##    <chr>      <chr>             <dbl>
##  1 17-AAG     Pearson_auc       0.515
##  2 AZD0530    Pearson_auc     NaN    
##  3 AZD6244    Pearson_auc     NaN    
##  4 Crizotinib Pearson_auc     NaN    
##  5 Erlotinib  Pearson_auc     NaN    
##  6 lapatinib  Pearson_auc     NaN    
##  7 Nilotinib  Pearson_auc     NaN    
##  8 Nutlin-3   Pearson_auc     NaN    
##  9 paclitaxel Pearson_auc       0.115
## 10 PD-0325901 Pearson_auc     NaN    
## # ... with 20 more rows
…
